^C:\USERS\GUEST-PVIPS\SOURCE\REPOS\OPENCVPROJECT\OPENCVPROJECT\BDPROJECTCPP.CPP
/c /Zi /nologo /W3 /WX- /diagnostics:column /sdl /O2 /Oi /GL /D NDEBUG /D _CONSOLE /D _UNICODE /D UNICODE /Gm- /EHsc /MD /GS /Gy /fp:precise /Zc:wchar_t /Zc:forScope /Zc:inline /permissive- /Fo"X64\RELEASE\\" /Fd"X64\RELEASE\VC143.PDB" /external:W3 /Gd /TP /FC C:\USERS\GUEST-PVIPS\SOURCE\REPOS\OPENCVPROJECT\OPENCVPROJECT\BDPROJECTCPP.CPP
^C:\USERS\GUEST-PVIPS\SOURCE\REPOS\OPENCVPROJECT\OPENCVPROJECT\MAIN .CPP
/c /Zi /nologo /W3 /WX- /diagnostics:column /sdl /O2 /Oi /GL /D NDEBUG /D _CONSOLE /D _UNICODE /D UNICODE /Gm- /EHsc /MD /GS /Gy /fp:precise /Zc:wchar_t /Zc:forScope /Zc:inline /permissive- /Fo"X64\RELEASE\\" /Fd"X64\RELEASE\VC143.PDB" /external:W3 /Gd /TP /FC C:\USERS\GUEST-PVIPS\SOURCE\REPOS\OPENCVPROJECT\OPENCVPROJECT\MAIN .CPP
